Assignment2_LFSR-FSM/Assignment2_LFSR-FSM.sim/sim_1/behav/xsim/sequence_detector_10010_tb.vcd
$date
   Thu Apr  3 20:20:11 2025
$end

$version
  2024.2.0
  $dumpfile ("sequence_detector_10010_tb.vcd") 
$end

$timescale
  1ps
$end

$scope module sequence_detector_10010_tb $end
$var reg 1 ! clk $end
$var reg 1 " reset $end
$var reg 1 # bit_in $end
$var reg 1 $ sh_en $end
$var wire 1 % detected $end
$var integer 32 & i [31:0] $end
$var reg 16 ' test_vector [15:0] $end
$var reg 16 ( expected_output [15:0] $end
$var reg 4 ) errors [3:0] $end
$var reg 4 * correct [3:0] $end
$scope module uut $end
$var wire 1 + bit_in $end
$var wire 1 , clk $end
$var wire 1 - reset $end
$var wire 1 . sh_en $end
$var reg 1 / detected $end
$var reg 3 0 current_state [2:0] $end
$var reg 3 1 next_state [2:0] $end
$upscope $end
$upscope $end
$enddefinitions $end

#0
$dumpvars
0!
1"
0#
0$
x%
bx &
b1001010010100110 '
b100001000010 (
b0 )
b0 *
0+
0,
1-
0.
x/
bx 0
bx 1
$end

#5000
1!
0%
1,
0/
b0 0

#10000
0!
0,

#15000
1!
1,

#20000
0!
0"
0,
0-

#25000
1!
1,

#30000
0!
1#
1$
b0 &
1+
0,
1.
b1 1

#35000
1!
1,
b1 0

#40000
0!
0#
b1 &
b1 *
0+
0,
b10 1

#45000
1!
1,
b10 0
b11 1

#50000
0!
b10 &
b10 *
0,

#55000
1!
1,
b11 0
b0 1

#60000
0!
1#
b11 &
b11 *
1+
0,
b100 1

#65000
1!
1,
b100 0
b1 1

#70000
0!
0#
b100 &
b100 *
0+
0,
b10 1

#75000
1!
1%
1,
1/
b10 0
b11 1

#80000
0!
1#
b101 &
b101 *
1+
0,
b1 1

#85000
1!
0%
1,
0/
b1 0

#90000
0!
0#
b110 &
b110 *
0+
0,
b10 1

#95000
1!
1,
b10 0
b11 1

#100000
0!
b111 &
b111 *
0,

#105000
1!
1,
b11 0
b0 1

#110000
0!
1#
b1000 &
b1000 *
1+
0,
b100 1

#115000
1!
1,
b100 0
b1 1

#120000
0!
0#
b1001 &
b1001 *
0+
0,
b10 1

#125000
1!
1%
1,
1/
b10 0
b11 1

#130000
0!
1#
b1010 &
b1010 *
1+
0,
b1 1

#135000
1!
0%
1,
0/
b1 0

#140000
0!
0#
b1011 &
b1011 *
0+
0,
b10 1

#145000
1!
1,
b10 0
b11 1

#150000
0!
b1100 &
b1100 *
0,

#155000
1!
1,
b11 0
b0 1

#160000
0!
1#
b1101 &
b1101 *
1+
0,
b100 1

#165000
1!
1,
b100 0
b1 1

#170000
0!
b1110 &
b1110 *
0,

#175000
1!
1,
b1 0

#180000
0!
0#
b1111 &
b1 )
0+
0,
b10 1

#185000
1!
1,
b10 0
b11 1

#190000
0!
1"
b10000 &
b1111 *
0,
1-

#195000
1!
1,
b0 0
b0 1

#200000
0!
0,

#205000
1!
1,

#210000
0!
0"
0,
0-

#215000
1!
1,

#220000
0!
1#
1+
0,
b1 1

#225000
1!
1,
b1 0

#230000
0!
0#
0+
0,
b10 1

#235000
1!
1,
b10 0
b11 1

#240000
0!
0$
0,
0.

#245000
1!
1,

#250000
0!
1#
1+
0,

#255000
1!
1,

#260000
0!
0#
1$
0+
0,
1.

#265000
1!
1,
b11 0
b0 1

#270000
0!
1#
1+
0,
b100 1

#275000
1!
1,
b100 0
b1 1

#280000
0!
0#
0$
0+
0,
0.

#285000
1!
1,

#290000
0!
1$
0,
1.
b10 1

#295000
1!
1%
1,
1/
b10 0
b11 1

#300000
0!
1"
b0 *
0,
1-

#305000
1!
0%
1,
0/
b0 0
b0 1

#310000
0!
0,

#315000
1!
1,

#320000
0!
0"
0,
0-

#325000
1!
1,

#330000
0!
1#
1+
0,
b1 1

#335000
1!
1,
b1 0

#340000
0!
0#
0+
0,
b10 1

#345000
1!
1,
b10 0
b11 1

#350000
0!
0,

#355000
1!
1,
b11 0
b0 1

#360000
0!
1#
1+
0,
b100 1

#365000
1!
1,
b100 0
b1 1

#370000
0!
0#
0+
0,
b10 1

#375000
1!
1%
1,
1/
b10 0
b11 1

#380000
0!
1#
0$
b1 *
1+
0,
0.

#385000
1!
0%
1,
0/

#390000
0!
0,

#395000
1!
1,

#400000
0!
0#
1$
0+
0,
1.

#405000
1!
1,
b11 0
b0 1

#410000
0!
1#
1+
0,
b100 1

#415000
1!
1,
b100 0
b1 1

#420000
0!
0#
0+
0,
b10 1

#425000
1!
1%
1,
1/
b10 0
b11 1

#430000
0!
1#
b10 *
1+
0,
b1 1

#435000
1!
0%
1,
0/
b1 0

#440000
0!
0#
0+
0,
b10 1

#445000
1!
1,
b10 0
b11 1

#450000
0!
0,

#455000
1!
1,
b11 0
b0 1

#460000
0!
1"
0,
1-

#465000
1!
1,
b0 0

#470000
0!
0"
0,
0-

#475000
1!
1,

#480000
0!
b11 *
0,

